[
  {
    "DESC": "top left",
    "x": 45,
    "y": 50,
    "width": 320,
    "height": 400,
    "class": "link",
    "data": {
      "url": "http://hvce.com/"
    }
  },
  {
    "DESC": "top right",
    "x": 385,
    "y": 40,
    "width": 320,
    "height": 400,
    "class": "link",
    "data": {
      "url": "https://www.facebook.com/QuattrosFarm/"
    }
  },
  {
    "DESC": "bottom ",
    "x": 45,
    "y": 480,
    "width": 660,
    "height": 440,
    "class": "link",
    "data": {
      "url": "http://frostvalley.org/"
    }
  }
]